<svg xmlns="http://www.w3.org/2000/svg" xmlns:xlink="http://www.w3.org/1999/xlink" preserveAspectRatio="xMidYMid" width="24" height="22" viewBox="0 0 24 22">
  <defs>
    <style>
      .cls-1 {
        fill: #333;
        fill-rule: evenodd;
      }
    </style>
  </defs>
  <path d="M12.000,19.557 C10.630,19.557 9.289,19.371 8.010,19.004 L1.573,21.969 C1.506,22.000 1.434,22.015 1.362,22.015 C1.230,22.015 1.100,21.963 1.004,21.865 C0.855,21.714 0.820,21.487 0.915,21.298 L3.325,16.537 C1.177,14.710 -0.000,12.323 -0.000,9.776 C-0.000,4.382 5.383,-0.005 12.000,-0.005 C18.617,-0.005 24.000,4.382 24.000,9.776 C24.000,15.169 18.617,19.557 12.000,19.557 ZM12.000,0.984 C5.935,0.984 1.000,4.928 1.000,9.776 C1.000,12.138 2.159,14.355 4.263,16.021 C4.447,16.167 4.503,16.420 4.398,16.629 L2.452,20.473 L7.760,18.028 C7.872,17.976 7.999,17.967 8.117,18.003 C9.356,18.377 10.663,18.567 12.000,18.567 C18.065,18.567 23.000,14.624 23.000,9.776 C23.000,4.928 18.065,0.984 12.000,0.984 ZM18.000,11.871 C16.897,11.871 16.000,10.984 16.000,9.892 C16.000,8.800 16.897,7.912 18.000,7.912 C19.103,7.912 20.000,8.800 20.000,9.892 C20.000,10.984 19.103,11.871 18.000,11.871 ZM18.000,8.902 C17.449,8.902 17.000,9.346 17.000,9.892 C17.000,10.437 17.449,10.882 18.000,10.882 C18.551,10.882 19.000,10.437 19.000,9.892 C19.000,9.346 18.551,8.902 18.000,8.902 ZM12.000,11.871 C10.897,11.871 10.000,10.984 10.000,9.892 C10.000,8.800 10.897,7.912 12.000,7.912 C13.103,7.912 14.000,8.800 14.000,9.892 C14.000,10.984 13.103,11.871 12.000,11.871 ZM12.000,8.902 C11.449,8.902 11.000,9.346 11.000,9.892 C11.000,10.437 11.449,10.882 12.000,10.882 C12.551,10.882 13.000,10.437 13.000,9.892 C13.000,9.346 12.551,8.902 12.000,8.902 ZM6.000,11.871 C4.897,11.871 4.000,10.984 4.000,9.892 C4.000,8.800 4.897,7.912 6.000,7.912 C7.103,7.912 8.000,8.800 8.000,9.892 C8.000,10.984 7.103,11.871 6.000,11.871 ZM6.000,8.902 C5.449,8.902 5.000,9.346 5.000,9.892 C5.000,10.437 5.449,10.882 6.000,10.882 C6.551,10.882 7.000,10.437 7.000,9.892 C7.000,9.346 6.551,8.902 6.000,8.902 Z" class="cls-1"/>
</svg>
