<svg xmlns="http://www.w3.org/2000/svg" xmlns:xlink="http://www.w3.org/1999/xlink" preserveAspectRatio="xMidYMid" width="49" height="49.03" viewBox="0 0 49 49.03">
  <defs>
    <style>
      .cls-1 {
        fill: #fff;
        filter: url(#color-overlay-1);
        fill-rule: evenodd;
      }
    </style>

    <filter id="color-overlay-1" filterUnits="userSpaceOnUse">
      <feFlood flood-color="#333"/>
      <feComposite operator="in" in2="SourceGraphic"/>
      <feBlend in2="SourceGraphic" result="solidFill"/>
    </filter>
  </defs>
  <path d="M0.000,49.020 L0.000,31.946 L3.068,9.911 L9.680,9.911 L13.456,28.258 L24.500,21.025 L24.500,28.181 L36.788,21.210 L36.788,28.211 L49.000,21.143 L49.000,49.020 L0.000,49.020 ZM46.958,24.699 L34.746,31.767 L34.746,24.730 L22.458,31.701 L22.458,24.816 L12.065,31.625 L8.017,11.969 L4.843,11.969 L2.032,32.090 L2.042,46.962 L46.958,46.962 L46.958,24.699 ZM15.312,36.670 L18.375,36.670 C18.939,36.670 19.396,37.130 19.396,37.699 C19.396,38.268 18.939,38.729 18.375,38.729 L15.312,38.729 C14.748,38.729 14.292,38.268 14.292,37.699 C14.292,37.130 14.748,36.670 15.312,36.670 ZM15.312,41.816 L18.375,41.816 C18.939,41.816 19.396,42.277 19.396,42.845 C19.396,43.414 18.939,43.874 18.375,43.874 L15.312,43.874 C14.748,43.874 14.292,43.414 14.292,42.845 C14.292,42.277 14.748,41.816 15.312,41.816 ZM27.562,36.670 L30.625,36.670 C31.189,36.670 31.646,37.130 31.646,37.699 C31.646,38.268 31.189,38.729 30.625,38.729 L27.562,38.729 C26.998,38.729 26.542,38.268 26.542,37.699 C26.542,37.130 26.998,36.670 27.562,36.670 ZM27.562,41.816 L30.625,41.816 C31.189,41.816 31.646,42.277 31.646,42.845 C31.646,43.414 31.189,43.874 30.625,43.874 L27.562,43.874 C26.998,43.874 26.542,43.414 26.542,42.845 C26.542,42.277 26.998,41.816 27.562,41.816 ZM39.812,36.670 L42.875,36.670 C43.439,36.670 43.896,37.130 43.896,37.699 C43.896,38.268 43.439,38.729 42.875,38.729 L39.812,38.729 C39.248,38.729 38.792,38.268 38.792,37.699 C38.792,37.130 39.248,36.670 39.812,36.670 ZM39.812,41.816 L42.875,41.816 C43.439,41.816 43.896,42.277 43.896,42.845 C43.896,43.414 43.439,43.874 42.875,43.874 L39.812,43.874 C39.248,43.874 38.792,43.414 38.792,42.845 C38.792,42.277 39.248,41.816 39.812,41.816 ZM22.227,9.493 C19.478,9.493 16.981,8.460 14.569,7.462 C11.259,6.090 8.185,5.069 5.644,6.667 C5.236,6.929 4.687,6.857 4.352,6.491 C4.019,6.126 3.992,5.573 4.287,5.177 C6.887,1.682 9.815,-0.015 13.241,-0.015 C15.645,-0.015 18.000,0.796 20.275,1.581 C22.492,2.345 24.586,3.065 26.649,3.065 C28.649,3.065 30.346,2.380 31.989,0.908 C32.378,0.558 32.966,0.562 33.355,0.917 C33.739,1.270 33.799,1.862 33.490,2.286 C29.963,7.135 26.278,9.493 22.227,9.493 ZM19.615,3.528 C17.400,2.764 15.307,2.043 13.241,2.043 C11.500,2.043 9.937,2.588 8.468,3.729 C8.534,3.728 8.601,3.727 8.669,3.727 C10.924,3.727 13.171,4.658 15.344,5.557 C17.573,6.479 19.880,7.435 22.227,7.435 C24.356,7.435 26.348,6.642 28.316,4.986 C25.507,5.467 22.434,4.500 19.615,3.528 Z" class="cls-1"/>
</svg>
