<svg xmlns="http://www.w3.org/2000/svg" xmlns:xlink="http://www.w3.org/1999/xlink" preserveAspectRatio="xMidYMid" width="49" height="49" viewBox="0 0 49 49">
  <defs>
    <style>
      .cls-1 {
        fill: #fff;
        filter: url(#color-overlay-1);
        fill-rule: evenodd;
      }
    </style>

    <filter id="color-overlay-1" filterUnits="userSpaceOnUse">
      <feFlood flood-color="#333"/>
      <feComposite operator="in" in2="SourceGraphic"/>
      <feBlend in2="SourceGraphic" result="solidFill"/>
    </filter>
  </defs>
  <path d="M47.979,49.000 L39.813,49.000 L27.563,49.000 L21.438,49.000 L9.188,49.000 L1.021,49.000 C0.457,49.000 -0.000,48.544 -0.000,47.979 C-0.000,47.415 0.457,46.959 1.021,46.959 L8.167,46.959 L8.167,10.198 L7.146,10.198 C6.582,10.198 6.125,9.741 6.125,9.176 L6.125,7.135 C6.125,6.702 6.398,6.316 6.807,6.171 L24.161,0.044 C24.380,-0.034 24.620,-0.034 24.839,0.044 L42.193,6.171 C42.602,6.316 42.875,6.702 42.875,7.135 L42.875,9.176 C42.875,9.741 42.418,10.198 41.854,10.198 L40.833,10.198 L40.833,46.959 L47.979,46.959 C48.544,46.959 49.000,47.415 49.000,47.979 C49.000,48.544 48.544,49.000 47.979,49.000 ZM22.458,46.959 L26.542,46.959 L26.542,38.789 L22.458,38.789 L22.458,46.959 ZM10.208,46.959 L20.417,46.959 L20.417,37.768 C20.417,37.204 20.873,36.747 21.438,36.747 L27.563,36.747 C28.127,36.747 28.583,37.204 28.583,37.768 L28.583,46.959 L38.792,46.959 L38.792,10.198 L10.208,10.198 L10.208,46.959 ZM40.833,7.857 L24.500,2.091 L8.167,7.857 L8.167,8.155 L9.188,8.155 L39.813,8.155 L40.833,8.155 L40.833,7.857 ZM35.729,42.874 L31.646,42.874 C31.082,42.874 30.625,42.417 30.625,41.853 L30.625,37.768 C30.625,37.204 31.082,36.747 31.646,36.747 L35.729,36.747 C36.294,36.747 36.750,37.204 36.750,37.768 L36.750,41.853 C36.750,42.417 36.294,42.874 35.729,42.874 ZM34.708,38.789 L32.667,38.789 L32.667,40.832 L34.708,40.832 L34.708,38.789 ZM35.729,34.705 L31.646,34.705 C31.082,34.705 30.625,34.248 30.625,33.684 L30.625,29.599 C30.625,29.035 31.082,28.578 31.646,28.578 L35.729,28.578 C36.294,28.578 36.750,29.035 36.750,29.599 L36.750,33.684 C36.750,34.248 36.294,34.705 35.729,34.705 ZM34.708,30.620 L32.667,30.620 L32.667,32.663 L34.708,32.663 L34.708,30.620 ZM35.729,26.536 L31.646,26.536 C31.082,26.536 30.625,26.079 30.625,25.515 L30.625,21.430 C30.625,20.866 31.082,20.409 31.646,20.409 L35.729,20.409 C36.294,20.409 36.750,20.866 36.750,21.430 L36.750,25.515 C36.750,26.079 36.294,26.536 35.729,26.536 ZM34.708,22.451 L32.667,22.451 L32.667,24.494 L34.708,24.494 L34.708,22.451 ZM35.729,18.367 L31.646,18.367 C31.082,18.367 30.625,17.910 30.625,17.346 L30.625,13.261 C30.625,12.696 31.082,12.240 31.646,12.240 L35.729,12.240 C36.294,12.240 36.750,12.696 36.750,13.261 L36.750,17.346 C36.750,17.910 36.294,18.367 35.729,18.367 ZM34.708,14.283 L32.667,14.283 L32.667,16.324 L34.708,16.324 L34.708,14.283 ZM27.563,34.705 L21.438,34.705 C20.873,34.705 20.417,34.248 20.417,33.684 L20.417,29.599 C20.417,29.035 20.873,28.578 21.438,28.578 L27.563,28.578 C28.127,28.578 28.583,29.035 28.583,29.599 L28.583,33.684 C28.583,34.248 28.127,34.705 27.563,34.705 ZM26.542,30.620 L22.458,30.620 L22.458,32.663 L26.542,32.663 L26.542,30.620 ZM27.563,26.536 L21.438,26.536 C20.873,26.536 20.417,26.079 20.417,25.515 L20.417,21.430 C20.417,20.866 20.873,20.409 21.438,20.409 L27.563,20.409 C28.127,20.409 28.583,20.866 28.583,21.430 L28.583,25.515 C28.583,26.079 28.127,26.536 27.563,26.536 ZM26.542,22.451 L22.458,22.451 L22.458,24.494 L26.542,24.494 L26.542,22.451 ZM27.563,18.367 L21.438,18.367 C20.873,18.367 20.417,17.910 20.417,17.346 L20.417,13.261 C20.417,12.696 20.873,12.240 21.438,12.240 L27.563,12.240 C28.127,12.240 28.583,12.696 28.583,13.261 L28.583,17.346 C28.583,17.910 28.127,18.367 27.563,18.367 ZM26.542,14.283 L22.458,14.283 L22.458,16.324 L26.542,16.324 L26.542,14.283 ZM17.354,42.874 L13.271,42.874 C12.707,42.874 12.250,42.417 12.250,41.853 L12.250,37.768 C12.250,37.204 12.707,36.747 13.271,36.747 L17.354,36.747 C17.918,36.747 18.375,37.204 18.375,37.768 L18.375,41.853 C18.375,42.417 17.918,42.874 17.354,42.874 ZM16.333,38.789 L14.292,38.789 L14.292,40.832 L16.333,40.832 L16.333,38.789 ZM17.354,34.705 L13.271,34.705 C12.707,34.705 12.250,34.248 12.250,33.684 L12.250,29.599 C12.250,29.035 12.707,28.578 13.271,28.578 L17.354,28.578 C17.918,28.578 18.375,29.035 18.375,29.599 L18.375,33.684 C18.375,34.248 17.918,34.705 17.354,34.705 ZM16.333,30.620 L14.292,30.620 L14.292,32.663 L16.333,32.663 L16.333,30.620 ZM17.354,26.536 L13.271,26.536 C12.707,26.536 12.250,26.079 12.250,25.515 L12.250,21.430 C12.250,20.866 12.707,20.409 13.271,20.409 L17.354,20.409 C17.918,20.409 18.375,20.866 18.375,21.430 L18.375,25.515 C18.375,26.079 17.918,26.536 17.354,26.536 ZM16.333,22.451 L14.292,22.451 L14.292,24.494 L16.333,24.494 L16.333,22.451 ZM17.354,18.367 L13.271,18.367 C12.707,18.367 12.250,17.910 12.250,17.346 L12.250,13.261 C12.250,12.696 12.707,12.240 13.271,12.240 L17.354,12.240 C17.918,12.240 18.375,12.696 18.375,13.261 L18.375,17.346 C18.375,17.910 17.918,18.367 17.354,18.367 ZM16.333,14.283 L14.292,14.283 L14.292,16.324 L16.333,16.324 L16.333,14.283 Z" class="cls-1"/>
</svg>
