<svg xmlns="http://www.w3.org/2000/svg" xmlns:xlink="http://www.w3.org/1999/xlink" preserveAspectRatio="xMidYMid" width="17" height="17" viewBox="0 0 17 17">
  <defs>
    <style>
      .cls-1 {
        fill: #939598;
        fill-rule: evenodd;
      }
    </style>
  </defs>
  <path d="M16.533,5.474 C14.918,5.475 13.303,5.483 11.689,5.464 C11.470,5.462 11.212,5.371 11.040,5.235 C9.512,4.020 7.511,4.021 5.982,5.251 C5.849,5.357 5.668,5.463 5.508,5.465 C3.757,5.480 2.005,5.474 0.253,5.472 C0.196,5.472 0.139,5.452 0.088,5.442 C-0.240,3.668 0.353,1.927 1.667,0.930 C1.667,2.106 1.667,3.233 1.667,4.396 C2.015,4.396 2.295,4.396 2.654,4.396 C2.654,3.236 2.654,2.109 2.654,0.982 C2.655,0.204 2.674,0.185 3.543,0.107 C3.543,1.523 3.543,2.936 3.543,4.391 C3.878,4.391 4.169,4.391 4.507,4.391 C4.507,2.931 4.507,1.487 4.507,-0.009 C4.717,-0.009 4.880,-0.009 5.043,-0.009 C7.557,-0.009 10.070,-0.011 12.583,-0.009 C15.166,-0.006 16.991,1.817 17.001,4.400 C17.002,4.734 17.001,5.067 17.001,5.445 C16.824,5.456 16.679,5.473 16.533,5.474 ZM13.447,2.078 C12.261,2.078 12.261,2.078 12.261,3.263 C12.261,4.500 12.261,4.500 13.484,4.500 C14.666,4.500 14.666,4.500 14.666,3.318 C14.666,2.078 14.666,2.078 13.447,2.078 ZM6.167,8.284 C6.163,6.989 7.224,5.931 8.524,5.934 C9.804,5.937 10.848,6.971 10.865,8.253 C10.882,9.552 9.835,10.615 8.531,10.621 C7.224,10.629 6.172,9.587 6.167,8.284 ZM5.708,11.045 C6.486,11.856 7.460,12.243 8.579,12.232 C9.441,12.223 10.227,11.952 10.910,11.420 C11.577,10.901 12.041,10.237 12.293,9.421 C12.548,8.594 12.484,7.771 12.233,6.898 C12.438,6.898 12.587,6.898 12.736,6.898 C14.134,6.898 15.533,6.898 17.000,6.898 C17.000,7.088 17.000,7.235 17.000,7.381 C17.000,9.151 17.006,10.922 16.998,12.693 C16.986,15.152 15.134,16.996 12.671,17.001 C9.900,17.008 7.129,17.008 4.359,17.002 C1.897,16.996 0.047,15.151 0.035,12.690 C0.026,10.782 0.033,8.875 0.033,6.916 C1.639,6.916 3.186,6.916 4.787,6.916 C4.343,8.479 4.584,9.874 5.708,11.045 Z" class="cls-1"/>
</svg>
